Homework 4
…
comments_tidy <- comments_tidy %>% 
  anti_join(stop_words)

Joining with `by = join_by(word)`

comments_tidy <- comments_tidy %>% 
  drop_na()

comments_freq <- comments_tidy %>% 
  count(word, sort=TRUE)

comments_freq

# A tibble: 21 × 2
   word        n
   <chr>   <int>
 1 merci       3
 2 love        2
 3 nutella     2
 4 2022        1
 5 22,3        1
 6 brown       1
 7 crepes      1
 8 haha        1
 9 idea        1
10 km          1
# … with 11 more rows
…
